Chapter 4 Results | Wait Time at Walt Disney World
…
## [1] "2020-01-01"

## # A tibble: 100 × 3
##    Datetime     avg    yr
##    <date>     <dbl> <dbl>
##  1 2015-01-01  31.2  2015
##  2 2015-01-02  33.0  2015
##  3 2015-01-03  24.1  2015
##  4 2015-01-04  16.3  2015
##  5 2015-01-05  20.4  2015
##  6 2015-01-06  16.7  2015
##  7 2015-01-07  12.8  2015
##  8 2015-01-08  11.7  2015
##  9 2015-01-09  12.2  2015
## 10 2015-01-10  21.6  2015
## # … with 90 more rows
…
